{
  "project_info": {
    "project_number": "643216839552",
    "project_id": "doeapp-36c34",
    "storage_bucket": "doeapp-36c34.appspot.com"
  },
  "client": [
    {
      "client_info": {
        "mobilesdk_app_id": "1:643216839552:android:a883a9cc828c14400fe765",
        "android_client_info": {
          "package_name": "com.DOE.doe_registration_app"
        }
      },
      "oauth_client": [
        {
          "client_id": "643216839552-nkkv3lfkutcmppi8p8ogd7dvs8fh1pls.apps.googleusercontent.com",
          "client_type": 3
        }
      ],
      "api_key": [
        {
          "current_key": "AIzaSyDLmG2KNeYAHNma2uOQZDDVjkl6gRoWxzw"
        }
      ],
      "services": {
        "appinvite_service": {
          "other_platform_oauth_client": [
            {
              "client_id": "643216839552-nkkv3lfkutcmppi8p8ogd7dvs8fh1pls.apps.googleusercontent.com",
              "client_type": 3
            }
          ]
        }
      }
    }
  ],
  "configuration_version": "1"
}